Data Wrangling
…
Question 2

Now select() only the variables year, lifeExp, and country.

# type your code below in this chunk
gapminder |> select( year, lifeExp, country)

# A tibble: 1,704 × 3
    year lifeExp country    
   <int>   <dbl> <fct>      
 1  1952    28.8 Afghanistan
 2  1957    30.3 Afghanistan
 3  1962    32.0 Afghanistan
 4  1967    34.0 Afghanistan
 5  1972    36.1 Afghanistan
 6  1977    38.4 Afghanistan
 7  1982    39.9 Afghanistan
 8  1987    40.8 Afghanistan
 9  1992    41.7 Afghanistan
10  1997    41.8 Afghanistan
# … with 1,694 more rows
…
